I402001
I402002
I402003
I402004
I402005
I402006
I402007
I402008
I402009
I402010
I402011
I402012
I402013
I402014
I500026
I500028
I500046
I500048
I500062
I500064
I500068
I500072
I500074
I500076
I500078
I500080
I500084
I500086
I500088
I500094
I500098
I500101
I500102
I500103
I500104
I500108
I500110
I500112
I500113
I500115
I500118
I500122
I500126
I500153
